Elapsed time=5.93e-05
Elapsed time=2.67e-05
Elapsed time=2.86e-05
Elapsed time=2.53e-05
Elapsed time=6.58e-05
Elapsed time=6.00e-05
Elapsed time=6.14e-05
Elapsed time=8.66e-05
Elapsed time=4.05e-04
Elapsed time=4.12e-04
Elapsed time=4.27e-04
Elapsed time=4.38e-04
Elapsed time=2.87e-03
Elapsed time=2.87e-03
Elapsed time=2.90e-03
Elapsed time=2.83e-03
Elapsed time=2.88e-03
Elapsed time=2.86e-03
Elapsed time=2.82e-03
Elapsed time=2.84e-03
Elapsed time=3.30e-03
Elapsed time=3.21e-03
Elapsed time=3.34e-03
Elapsed time=3.29e-03
Elapsed time=2.68e+01
Elapsed time=2.68e+01
Elapsed time=2.68e+01
Elapsed time=2.74e+01
Elapsed time=2.69e+01
Elapsed time=2.68e+01
Elapsed time=2.82e+01
Elapsed time=2.74e+01
Elapsed time=2.75e+01
Elapsed time=2.68e+01
Elapsed time=2.69e+01
Elapsed time=2.69e+01
Elapsed time=1.45e-04
Elapsed time=1.55e-04
Elapsed time=1.61e-04
Elapsed time=1.57e-04
Elapsed time=1.72e-04
Elapsed time=1.91e-04
Elapsed time=4.19e-04
Elapsed time=2.83e-04
Elapsed time=7.10e-04
Elapsed time=6.01e-04
Elapsed time=1.05e-03
Elapsed time=1.03e-03
Elapsed time=1.59e-03
Elapsed time=1.74e-03
Elapsed time=1.72e-03
Elapsed time=1.55e-03
Elapsed time=1.60e-03
Elapsed time=1.91e-03
Elapsed time=1.70e-03
Elapsed time=1.94e-03
Elapsed time=2.02e-03
Elapsed time=2.23e-03
Elapsed time=2.61e-03
Elapsed time=2.33e-03
Elapsed time=1.41e+01
Elapsed time=1.44e+01
Elapsed time=1.41e+01
Elapsed time=1.40e+01
Elapsed time=1.37e+01
Elapsed time=1.37e+01
Elapsed time=1.40e+01
Elapsed time=1.37e+01
Elapsed time=1.44e+01
Elapsed time=1.39e+01
Elapsed time=1.64e+01
Elapsed time=1.45e+01
Elapsed time=2.07e-04
Elapsed time=1.84e-04
Elapsed time=2.14e-04
Elapsed time=1.98e-04
Elapsed time=2.84e-04
Elapsed time=3.58e-04
Elapsed time=4.28e-04
Elapsed time=5.26e-04
Elapsed time=5.74e-04
Elapsed time=7.63e-04
Elapsed time=1.61e-03
Elapsed time=1.71e-03
Elapsed time=9.43e-04
Elapsed time=9.80e-04
Elapsed time=1.10e-03
Elapsed time=1.19e-03
Elapsed time=9.52e-04
Elapsed time=9.79e-04
Elapsed time=1.30e-03
Elapsed time=1.38e-03
Elapsed time=1.32e-03
Elapsed time=1.36e-03
Elapsed time=2.55e-03
Elapsed time=2.28e-03
Elapsed time=7.09e+00
Elapsed time=7.25e+00
Elapsed time=7.11e+00
Elapsed time=6.94e+00
Elapsed time=7.11e+00
Elapsed time=7.02e+00
Elapsed time=6.87e+00
Elapsed time=7.06e+00
Elapsed time=7.07e+00
Elapsed time=7.01e+00
Elapsed time=8.37e+00
Elapsed time=7.17e+00
Elapsed time=3.76e-04
Elapsed time=3.78e-04
Elapsed time=4.03e-04
Elapsed time=3.77e-04
Elapsed time=4.14e-04
Elapsed time=4.91e-04
Elapsed time=6.38e-04
Elapsed time=8.42e-04
Elapsed time=7.41e-04
Elapsed time=7.00e-04
Elapsed time=3.07e-03
Elapsed time=3.20e-03
Elapsed time=7.01e-04
Elapsed time=7.66e-04
Elapsed time=8.76e-04
Elapsed time=7.61e-04
Elapsed time=8.94e-04
Elapsed time=8.08e-04
Elapsed time=1.12e-03
Elapsed time=1.04e-03
Elapsed time=1.21e-03
Elapsed time=1.11e-03
Elapsed time=3.58e-03
Elapsed time=3.52e-03
Elapsed time=3.82e+00
Elapsed time=3.88e+00
Elapsed time=3.79e+00
Elapsed time=3.85e+00
Elapsed time=3.79e+00
Elapsed time=3.79e+00
Elapsed time=3.86e+00
Elapsed time=3.91e+00
Elapsed time=3.80e+00
Elapsed time=3.82e+00
Elapsed time=4.60e+00
Elapsed time=3.77e+00
Elapsed time=5.20e-04
Elapsed time=5.02e-04
Elapsed time=5.64e-04
Elapsed time=5.17e-04
Elapsed time=6.10e-04
Elapsed time=5.46e-04
Elapsed time=1.12e-03
Elapsed time=1.07e-03
Elapsed time=1.05e-03
Elapsed time=9.36e-04
Elapsed time=5.26e-03
Elapsed time=5.19e-03
Elapsed time=7.55e-04
Elapsed time=7.40e-04
Elapsed time=7.29e-04
Elapsed time=8.27e-04
Elapsed time=7.98e-04
Elapsed time=8.53e-04
Elapsed time=1.32e-03
Elapsed time=1.24e-03
Elapsed time=1.48e-03
Elapsed time=1.60e-03
Elapsed time=5.76e-03
Elapsed time=6.13e-03
Elapsed time=2.60e+00
Elapsed time=2.60e+00
Elapsed time=2.60e+00
Elapsed time=2.58e+00
Elapsed time=2.58e+00
Elapsed time=2.59e+00
Elapsed time=2.65e+00
Elapsed time=2.58e+00
Elapsed time=2.61e+00
Elapsed time=2.60e+00
Elapsed time=3.37e+00
Elapsed time=2.62e+00
Elapsed time=6.36e-04
Elapsed time=6.64e-04
Elapsed time=6.61e-04
Elapsed time=5.61e-04
Elapsed time=7.18e-04
Elapsed time=7.15e-04
Elapsed time=1.43e-03
Elapsed time=1.58e-03
Elapsed time=1.16e-03
Elapsed time=1.25e-03
Elapsed time=7.98e-03
Elapsed time=8.11e-03
Elapsed time=8.19e-04
Elapsed time=7.71e-04
Elapsed time=8.71e-04
Elapsed time=9.25e-04
Elapsed time=9.38e-04
Elapsed time=8.95e-04
Elapsed time=1.67e-03
Elapsed time=1.75e-03
Elapsed time=1.48e-03
Elapsed time=1.35e-03
Elapsed time=8.13e-03
Elapsed time=8.32e-03
Elapsed time=2.02e+00
Elapsed time=2.01e+00
Elapsed time=1.97e+00
Elapsed time=1.97e+00
Elapsed time=1.94e+00
Elapsed time=1.96e+00
Elapsed time=2.09e+00
Elapsed time=1.98e+00
Elapsed time=1.96e+00
Elapsed time=1.98e+00
Elapsed time=2.51e+00
Elapsed time=2.00e+00
Elapsed time=8.05e-04
Elapsed time=6.94e-04
Elapsed time=1.07e-03
Elapsed time=6.66e-03
Elapsed time=1.19e-03
Elapsed time=8.67e-04
Elapsed time=1.85e-03
Elapsed time=1.88e-03
Elapsed time=1.37e-03
Elapsed time=1.52e-03
Elapsed time=1.03e-02
Elapsed time=1.00e-02
Elapsed time=1.01e-03
Elapsed time=9.43e-04
Elapsed time=9.37e-04
Elapsed time=9.44e-04
Elapsed time=1.07e-03
Elapsed time=1.10e-03
Elapsed time=2.08e-03
Elapsed time=2.71e-03
Elapsed time=2.45e-03
Elapsed time=1.53e-03
Elapsed time=1.04e-02
Elapsed time=1.04e-02
Elapsed time=1.64e+00
Elapsed time=1.63e+00
Elapsed time=1.61e+00
Elapsed time=1.70e+00
Elapsed time=1.59e+00
Elapsed time=1.61e+00
Elapsed time=1.78e+00
Elapsed time=1.59e+00
Elapsed time=1.59e+00
Elapsed time=1.58e+00
Elapsed time=2.07e+00
Elapsed time=1.69e+00
Elapsed time=4.76e-03
Elapsed time=2.98e-03
Elapsed time=1.02e-03
Elapsed time=2.57e-03
Elapsed time=1.65e-03
Elapsed time=1.95e-03
Elapsed time=3.73e-03
Elapsed time=6.43e-03
Elapsed time=4.02e-03
Elapsed time=1.52e-03
Elapsed time=1.70e-02
Elapsed time=2.43e-02
Elapsed time=8.24e-03
Elapsed time=1.04e-03
Elapsed time=1.17e-02
Elapsed time=2.22e-03
Elapsed time=8.71e-03
Elapsed time=8.51e-03
Elapsed time=3.70e-03
Elapsed time=1.52e-02
Elapsed time=2.00e-03
Elapsed time=4.83e-03
Elapsed time=2.36e-02
Elapsed time=2.26e-02
Elapsed time=1.38e+00
Elapsed time=1.38e+00
Elapsed time=1.40e+00
Elapsed time=1.36e+00
Elapsed time=1.45e+00
Elapsed time=1.65e+00
Elapsed time=1.84e+00
Elapsed time=1.56e+00
Elapsed time=1.46e+00
Elapsed time=1.47e+00
Elapsed time=2.03e+00
Elapsed time=1.39e+00
=================================================================
Elapsed=1.66e+00
Elapsed=1.66e+00
Elapsed=1.73e+01
Elapsed=1.73e+01
Elapsed=1.13e+00
Elapsed=2.22e+00
Elapsed=1.14e+01
Elapsed=2.29e+01
Elapsed=6.69e-01
Elapsed=2.82e+00
Elapsed=7.06e+00
Elapsed=2.85e+01
Elapsed=4.13e-01
Elapsed=3.51e+00
Elapsed=4.25e+00
Elapsed=3.63e+01
Elapsed=3.52e-01
Elapsed=4.32e+00
Elapsed=3.65e+00
Elapsed=4.32e+01
Elapsed=3.41e-01
Elapsed=5.40e+00
Elapsed=3.38e+00
Elapsed=5.58e+01
Elapsed=3.36e-01
Elapsed=7.06e+00
Elapsed=3.39e+00
Elapsed=7.10e+01
Elapsed=5.45e-01
Elapsed=1.24e+01
Elapsed=5.12e+00
Elapsed=1.23e+02
