Running on shas0445.rc.int.colorado.edu
Begin set p = {8, 27, 64} for weak scaling
8 threads with n = 600 discretization points
Grid dimensions are 2 by 2 by 2
Total residual norm: 7.47241e-05
Total time elapsed: 24.8666 seconds
27 threads with n = 900 discretization points
Grid dimensions are 3 by 3 by 3
Total residual norm: 3.30968e-05
Total time elapsed: 25.2768 seconds
64 threads with n = 1200 discretization points
Grid dimensions are 4 by 4 by 4
Total residual norm: 1.86755e-05
Total time elapsed: 26.5591 seconds
