Running on shas0122.rc.int.colorado.edu
Number of threads = 1
Calling axpy - Passed
Elapsed time: 0.235056s
Number of threads = 2
Calling axpy - Passed
Elapsed time: 0.119758s
Number of threads = 4
Calling axpy - Passed
Elapsed time: 0.0628421s
Number of threads = 8
Calling axpy - Passed
Elapsed time: 0.0356882s
Number of threads = 16
Calling axpy - Passed
Elapsed time: 0.0554509s
