Running on shas0609.rc.int.colorado.edu
Number of threads = 1
Calling axpy - Passed
Elapsed time: 0.235432s
Number of threads = 2
Calling axpy - Passed
Elapsed time: 0.238028s
Number of threads = 4
Calling axpy - Passed
Elapsed time: 0.249625s
Number of threads = 8
Calling axpy - Passed
Elapsed time: 0.267516s
Number of threads = 16
Calling axpy - Passed
Elapsed time: 0.430951s
