Testing stride = 1, dims = 2, k = 3
Classification complete. Accuracy: 0.48 
 67.107576 seconds (600.18 M allocations: 64.453 GiB, 8.47% gc time)
===========================================
Testing stride = 1, dims = 2, k = 7
Classification complete. Accuracy: 0.52 
 67.506037 seconds (600.18 M allocations: 64.454 GiB, 8.61% gc time)
===========================================
Testing stride = 1, dims = 2, k = 11
Classification complete. Accuracy: 0.54 
 67.374970 seconds (600.18 M allocations: 64.454 GiB, 8.58% gc time)
===========================================
Testing stride = 1, dims = 2, k = 15
Classification complete. Accuracy: 0.54 
 67.285124 seconds (600.18 M allocations: 64.454 GiB, 8.44% gc time)
===========================================
Testing stride = 1, dims = 2, k = 19
Classification complete. Accuracy: 0.55 
 67.414329 seconds (600.18 M allocations: 64.455 GiB, 8.58% gc time)
===========================================
Testing stride = 1, dims = 4, k = 3
Classification complete. Accuracy: 0.69 
 71.272770 seconds (600.18 M allocations: 73.395 GiB, 10.34% gc time)
===========================================
Testing stride = 1, dims = 4, k = 7
Classification complete. Accuracy: 0.71 
 71.327037 seconds (600.18 M allocations: 73.395 GiB, 10.32% gc time)
===========================================
Testing stride = 1, dims = 4, k = 11
Classification complete. Accuracy: 0.72 
 71.090826 seconds (600.18 M allocations: 73.396 GiB, 10.32% gc time)
===========================================
Testing stride = 1, dims = 4, k = 15
Classification complete. Accuracy: 0.72 
 71.178058 seconds (600.18 M allocations: 73.396 GiB, 10.34% gc time)
===========================================
Testing stride = 1, dims = 4, k = 19
Classification complete. Accuracy: 0.72 
 71.022590 seconds (600.18 M allocations: 73.396 GiB, 10.15% gc time)
===========================================
Testing stride = 1, dims = 6, k = 3
Classification complete. Accuracy: 0.76 
 68.966973 seconds (600.18 M allocations: 82.337 GiB, 6.38% gc time)
===========================================
Testing stride = 1, dims = 6, k = 7
Classification complete. Accuracy: 0.77 
 70.485970 seconds (600.18 M allocations: 82.337 GiB, 6.54% gc time)
===========================================
Testing stride = 1, dims = 6, k = 11
Classification complete. Accuracy: 0.78 
 70.569329 seconds (600.18 M allocations: 82.338 GiB, 6.66% gc time)
===========================================
Testing stride = 1, dims = 6, k = 15
Classification complete. Accuracy: 0.77 
 69.472077 seconds (600.18 M allocations: 82.338 GiB, 6.39% gc time)
===========================================
Testing stride = 1, dims = 6, k = 19
Classification complete. Accuracy: 0.78 
 69.426085 seconds (600.18 M allocations: 82.338 GiB, 6.30% gc time)
===========================================
Testing stride = 1, dims = 8, k = 3
Classification complete. Accuracy: 0.79 
 71.471726 seconds (600.18 M allocations: 91.279 GiB, 6.11% gc time)
===========================================
Testing stride = 1, dims = 8, k = 7
Classification complete. Accuracy: 0.79 
 71.514950 seconds (600.18 M allocations: 91.279 GiB, 6.24% gc time)
===========================================
Testing stride = 1, dims = 8, k = 11
Classification complete. Accuracy: 0.80 
 71.666143 seconds (600.18 M allocations: 91.279 GiB, 6.22% gc time)
===========================================
Testing stride = 1, dims = 8, k = 15
Classification complete. Accuracy: 0.80 
 71.311591 seconds (600.18 M allocations: 91.280 GiB, 6.18% gc time)
===========================================
Testing stride = 1, dims = 8, k = 19
Classification complete. Accuracy: 0.80 
 71.582665 seconds (600.18 M allocations: 91.280 GiB, 6.23% gc time)
===========================================
Testing stride = 1, dims = 10, k = 3
Classification complete. Accuracy: 0.81 
 74.232153 seconds (600.18 M allocations: 100.220 GiB, 6.65% gc time)
===========================================
Testing stride = 1, dims = 10, k = 7
Classification complete. Accuracy: 0.82 
 74.748654 seconds (600.18 M allocations: 100.221 GiB, 6.76% gc time)
===========================================
Testing stride = 1, dims = 10, k = 11
Classification complete. Accuracy: 0.82 
 73.925020 seconds (600.18 M allocations: 100.221 GiB, 6.54% gc time)
===========================================
Testing stride = 1, dims = 10, k = 15
Classification complete. Accuracy: 0.82 
 74.276376 seconds (600.18 M allocations: 100.221 GiB, 6.56% gc time)
===========================================
Testing stride = 1, dims = 10, k = 19
Classification complete. Accuracy: 0.82 
 73.127127 seconds (600.18 M allocations: 100.222 GiB, 6.46% gc time)
===========================================
Testing stride = 20, dims = 2, k = 3
Classification complete. Accuracy: 0.49 
  5.836350 seconds (30.25 M allocations: 3.960 GiB, 10.41% gc time)
===========================================
Testing stride = 20, dims = 2, k = 7
Classification complete. Accuracy: 0.52 
  5.741335 seconds (30.18 M allocations: 3.957 GiB, 10.48% gc time)
===========================================
Testing stride = 20, dims = 2, k = 11
Classification complete. Accuracy: 0.53 
  5.754045 seconds (30.18 M allocations: 3.957 GiB, 10.43% gc time)
===========================================
Testing stride = 20, dims = 2, k = 15
Classification complete. Accuracy: 0.54 
  5.744607 seconds (30.18 M allocations: 3.957 GiB, 10.43% gc time)
===========================================
Testing stride = 20, dims = 2, k = 19
Classification complete. Accuracy: 0.55 
  5.743136 seconds (30.18 M allocations: 3.958 GiB, 10.43% gc time)
===========================================
Testing stride = 20, dims = 4, k = 3
Classification complete. Accuracy: 0.67 
  5.945693 seconds (30.18 M allocations: 4.404 GiB, 11.59% gc time)
===========================================
Testing stride = 20, dims = 4, k = 7
Classification complete. Accuracy: 0.68 
  5.951445 seconds (30.18 M allocations: 4.404 GiB, 11.59% gc time)
===========================================
Testing stride = 20, dims = 4, k = 11
Classification complete. Accuracy: 0.69 
  5.950074 seconds (30.18 M allocations: 4.404 GiB, 11.62% gc time)
===========================================
Testing stride = 20, dims = 4, k = 15
Classification complete. Accuracy: 0.69 
  5.957307 seconds (30.18 M allocations: 4.405 GiB, 11.65% gc time)
===========================================
Testing stride = 20, dims = 4, k = 19
Classification complete. Accuracy: 0.68 
  5.958967 seconds (30.18 M allocations: 4.405 GiB, 11.60% gc time)
===========================================
Testing stride = 20, dims = 6, k = 3
Classification complete. Accuracy: 0.72 
  5.894604 seconds (30.18 M allocations: 4.851 GiB, 9.37% gc time)
===========================================
Testing stride = 20, dims = 6, k = 7
Classification complete. Accuracy: 0.73 
  5.879669 seconds (30.18 M allocations: 4.851 GiB, 9.39% gc time)
===========================================
Testing stride = 20, dims = 6, k = 11
Classification complete. Accuracy: 0.73 
  5.879148 seconds (30.18 M allocations: 4.852 GiB, 9.35% gc time)
===========================================
Testing stride = 20, dims = 6, k = 15
Classification complete. Accuracy: 0.73 
  5.887829 seconds (30.18 M allocations: 4.852 GiB, 9.36% gc time)
===========================================
Testing stride = 20, dims = 6, k = 19
Classification complete. Accuracy: 0.73 
  5.868672 seconds (30.18 M allocations: 4.852 GiB, 9.36% gc time)
===========================================
Testing stride = 20, dims = 8, k = 3
Classification complete. Accuracy: 0.73 
  5.947770 seconds (30.18 M allocations: 5.298 GiB, 9.08% gc time)
===========================================
Testing stride = 20, dims = 8, k = 7
Classification complete. Accuracy: 0.74 
  5.985177 seconds (30.18 M allocations: 5.299 GiB, 9.04% gc time)
===========================================
Testing stride = 20, dims = 8, k = 11
Classification complete. Accuracy: 0.74 
  5.980148 seconds (30.18 M allocations: 5.299 GiB, 9.05% gc time)
===========================================
Testing stride = 20, dims = 8, k = 15
Classification complete. Accuracy: 0.74 
  5.968169 seconds (30.18 M allocations: 5.299 GiB, 9.07% gc time)
===========================================
Testing stride = 20, dims = 8, k = 19
Classification complete. Accuracy: 0.74 
  5.967733 seconds (30.18 M allocations: 5.299 GiB, 9.06% gc time)
===========================================
Testing stride = 20, dims = 10, k = 3
Classification complete. Accuracy: 0.76 
  6.065156 seconds (30.18 M allocations: 5.746 GiB, 9.32% gc time)
===========================================
Testing stride = 20, dims = 10, k = 7
Classification complete. Accuracy: 0.77 
  6.054818 seconds (30.18 M allocations: 5.746 GiB, 9.32% gc time)
===========================================
Testing stride = 20, dims = 10, k = 11
Classification complete. Accuracy: 0.76 
  6.059159 seconds (30.18 M allocations: 5.746 GiB, 9.31% gc time)
===========================================
Testing stride = 20, dims = 10, k = 15
Classification complete. Accuracy: 0.76 
  6.056945 seconds (30.18 M allocations: 5.746 GiB, 9.27% gc time)
===========================================
Testing stride = 20, dims = 10, k = 19
Classification complete. Accuracy: 0.76 
  6.068379 seconds (30.18 M allocations: 5.747 GiB, 9.31% gc time)
===========================================
Testing stride = 40, dims = 2, k = 3
Classification complete. Accuracy: 0.49 
  4.417921 seconds (15.16 M allocations: 2.366 GiB, 10.29% gc time)
===========================================
Testing stride = 40, dims = 2, k = 7
Classification complete. Accuracy: 0.51 
  4.441636 seconds (15.16 M allocations: 2.366 GiB, 10.27% gc time)
===========================================
Testing stride = 40, dims = 2, k = 11
Classification complete. Accuracy: 0.52 
  4.418039 seconds (15.16 M allocations: 2.367 GiB, 10.31% gc time)
===========================================
Testing stride = 40, dims = 2, k = 15
Classification complete. Accuracy: 0.53 
  4.417970 seconds (15.16 M allocations: 2.367 GiB, 10.32% gc time)
===========================================
Testing stride = 40, dims = 2, k = 19
Classification complete. Accuracy: 0.53 
  4.413812 seconds (15.16 M allocations: 2.367 GiB, 10.31% gc time)
===========================================
Testing stride = 40, dims = 4, k = 3
Classification complete. Accuracy: 0.65 
  4.525547 seconds (15.16 M allocations: 2.590 GiB, 11.13% gc time)
===========================================
Testing stride = 40, dims = 4, k = 7
Classification complete. Accuracy: 0.67 
  4.526633 seconds (15.16 M allocations: 2.590 GiB, 11.11% gc time)
===========================================
Testing stride = 40, dims = 4, k = 11
Classification complete. Accuracy: 0.67 
  4.527191 seconds (15.16 M allocations: 2.590 GiB, 11.09% gc time)
===========================================
Testing stride = 40, dims = 4, k = 15
Classification complete. Accuracy: 0.67 
  4.526316 seconds (15.16 M allocations: 2.591 GiB, 11.11% gc time)
===========================================
Testing stride = 40, dims = 4, k = 19
Classification complete. Accuracy: 0.66 
  4.523738 seconds (15.16 M allocations: 2.591 GiB, 11.11% gc time)
===========================================
Testing stride = 40, dims = 6, k = 3
Classification complete. Accuracy: 0.71 
  4.479974 seconds (15.16 M allocations: 2.813 GiB, 9.62% gc time)
===========================================
Testing stride = 40, dims = 6, k = 7
Classification complete. Accuracy: 0.71 
  4.483371 seconds (15.16 M allocations: 2.814 GiB, 9.59% gc time)
===========================================
Testing stride = 40, dims = 6, k = 11
Classification complete. Accuracy: 0.71 
  4.481470 seconds (15.16 M allocations: 2.814 GiB, 9.61% gc time)
===========================================
Testing stride = 40, dims = 6, k = 15
Classification complete. Accuracy: 0.71 
  4.487950 seconds (15.16 M allocations: 2.814 GiB, 9.61% gc time)
===========================================
Testing stride = 40, dims = 6, k = 19
Classification complete. Accuracy: 0.71 
  4.489971 seconds (15.16 M allocations: 2.815 GiB, 9.58% gc time)
===========================================
Testing stride = 40, dims = 8, k = 3
Classification complete. Accuracy: 0.72 
  4.517213 seconds (15.16 M allocations: 3.037 GiB, 9.37% gc time)
===========================================
Testing stride = 40, dims = 8, k = 7
Classification complete. Accuracy: 0.72 
  4.513246 seconds (15.16 M allocations: 3.037 GiB, 9.40% gc time)
===========================================
Testing stride = 40, dims = 8, k = 11
Classification complete. Accuracy: 0.72 
  4.519594 seconds (15.16 M allocations: 3.038 GiB, 9.41% gc time)
===========================================
Testing stride = 40, dims = 8, k = 15
Classification complete. Accuracy: 0.72 
  4.521542 seconds (15.16 M allocations: 3.038 GiB, 9.43% gc time)
===========================================
Testing stride = 40, dims = 8, k = 19
Classification complete. Accuracy: 0.71 
  4.530488 seconds (15.16 M allocations: 3.038 GiB, 9.39% gc time)
===========================================
Testing stride = 40, dims = 10, k = 3
Classification complete. Accuracy: 0.74 
  4.570605 seconds (15.16 M allocations: 3.261 GiB, 9.56% gc time)
===========================================
Testing stride = 40, dims = 10, k = 7
Classification complete. Accuracy: 0.74 
  4.583121 seconds (15.16 M allocations: 3.261 GiB, 9.54% gc time)
===========================================
Testing stride = 40, dims = 10, k = 11
Classification complete. Accuracy: 0.74 
  4.571686 seconds (15.16 M allocations: 3.261 GiB, 9.53% gc time)
===========================================
Testing stride = 40, dims = 10, k = 15
Classification complete. Accuracy: 0.74 
  4.571694 seconds (15.16 M allocations: 3.262 GiB, 9.53% gc time)
===========================================
Testing stride = 40, dims = 10, k = 19
Classification complete. Accuracy: 0.73 
  4.576046 seconds (15.16 M allocations: 3.262 GiB, 9.53% gc time)
===========================================
Testing stride = 60, dims = 2, k = 3
Classification complete. Accuracy: 0.48 
  3.991329 seconds (10.16 M allocations: 1.835 GiB, 10.17% gc time)
===========================================
Testing stride = 60, dims = 2, k = 7
Classification complete. Accuracy: 0.51 
  3.996662 seconds (10.16 M allocations: 1.835 GiB, 10.16% gc time)
===========================================
Testing stride = 60, dims = 2, k = 11
Classification complete. Accuracy: 0.53 
  3.990100 seconds (10.16 M allocations: 1.835 GiB, 10.17% gc time)
===========================================
Testing stride = 60, dims = 2, k = 15
Classification complete. Accuracy: 0.53 
  3.991826 seconds (10.16 M allocations: 1.836 GiB, 10.19% gc time)
===========================================
Testing stride = 60, dims = 2, k = 19
Classification complete. Accuracy: 0.53 
  3.996613 seconds (10.16 M allocations: 1.836 GiB, 10.17% gc time)
===========================================
Testing stride = 60, dims = 4, k = 3
Classification complete. Accuracy: 0.63 
  4.075819 seconds (10.16 M allocations: 1.984 GiB, 10.72% gc time)
===========================================
Testing stride = 60, dims = 4, k = 7
Classification complete. Accuracy: 0.64 
  4.070528 seconds (10.16 M allocations: 1.984 GiB, 10.77% gc time)
===========================================
Testing stride = 60, dims = 4, k = 11
Classification complete. Accuracy: 0.65 
  4.061795 seconds (10.16 M allocations: 1.984 GiB, 10.79% gc time)
===========================================
Testing stride = 60, dims = 4, k = 15
Classification complete. Accuracy: 0.65 
  4.069238 seconds (10.16 M allocations: 1.985 GiB, 10.76% gc time)
===========================================
Testing stride = 60, dims = 4, k = 19
Classification complete. Accuracy: 0.64 
  4.071681 seconds (10.16 M allocations: 1.985 GiB, 10.79% gc time)
===========================================
Testing stride = 60, dims = 6, k = 3
Classification complete. Accuracy: 0.68 
  4.041710 seconds (10.16 M allocations: 2.133 GiB, 9.70% gc time)
===========================================
Testing stride = 60, dims = 6, k = 7
Classification complete. Accuracy: 0.70 
  4.037992 seconds (10.16 M allocations: 2.133 GiB, 9.66% gc time)
===========================================
Testing stride = 60, dims = 6, k = 11
Classification complete. Accuracy: 0.70 
  4.035288 seconds (10.16 M allocations: 2.134 GiB, 9.65% gc time)
===========================================
Testing stride = 60, dims = 6, k = 15
Classification complete. Accuracy: 0.70 
  4.039954 seconds (10.16 M allocations: 2.134 GiB, 9.65% gc time)
===========================================
Testing stride = 60, dims = 6, k = 19
Classification complete. Accuracy: 0.70 
  4.037900 seconds (10.16 M allocations: 2.134 GiB, 9.65% gc time)
===========================================
Testing stride = 60, dims = 8, k = 3
Classification complete. Accuracy: 0.70 
  4.059899 seconds (10.16 M allocations: 2.282 GiB, 9.50% gc time)
===========================================
Testing stride = 60, dims = 8, k = 7
Classification complete. Accuracy: 0.71 
  4.061486 seconds (10.16 M allocations: 2.283 GiB, 9.49% gc time)
===========================================
Testing stride = 60, dims = 8, k = 11
Classification complete. Accuracy: 0.71 
  4.065448 seconds (10.16 M allocations: 2.283 GiB, 9.51% gc time)
===========================================
Testing stride = 60, dims = 8, k = 15
Classification complete. Accuracy: 0.71 
  4.071542 seconds (10.16 M allocations: 2.283 GiB, 9.48% gc time)
===========================================
Testing stride = 60, dims = 8, k = 19
Classification complete. Accuracy: 0.71 
  4.065282 seconds (10.16 M allocations: 2.283 GiB, 9.48% gc time)
===========================================
Testing stride = 60, dims = 10, k = 3
Classification complete. Accuracy: 0.73 
  4.098809 seconds (10.16 M allocations: 2.432 GiB, 9.60% gc time)
===========================================
Testing stride = 60, dims = 10, k = 7
Classification complete. Accuracy: 0.74 
  4.104599 seconds (10.16 M allocations: 2.432 GiB, 9.63% gc time)
===========================================
Testing stride = 60, dims = 10, k = 11
Classification complete. Accuracy: 0.73 
  4.101016 seconds (10.16 M allocations: 2.432 GiB, 9.59% gc time)
===========================================
Testing stride = 60, dims = 10, k = 15
Classification complete. Accuracy: 0.73 
  4.101280 seconds (10.16 M allocations: 2.432 GiB, 9.61% gc time)
===========================================
Testing stride = 60, dims = 10, k = 19
Classification complete. Accuracy: 0.73 
  4.105681 seconds (10.16 M allocations: 2.433 GiB, 9.61% gc time)
===========================================
Testing stride = 80, dims = 2, k = 3
Classification complete. Accuracy: 0.49 
  3.915073 seconds (7.74 M allocations: 1.580 GiB, 9.78% gc time)
===========================================
Testing stride = 80, dims = 2, k = 7
Classification complete. Accuracy: 0.51 
  3.826755 seconds (7.66 M allocations: 1.577 GiB, 9.98% gc time)
===========================================
Testing stride = 80, dims = 2, k = 11
Classification complete. Accuracy: 0.51 
  3.827162 seconds (7.66 M allocations: 1.577 GiB, 10.02% gc time)
===========================================
Testing stride = 80, dims = 2, k = 15
Classification complete. Accuracy: 0.52 
  3.828459 seconds (7.66 M allocations: 1.578 GiB, 10.01% gc time)
===========================================
Testing stride = 80, dims = 2, k = 19
Classification complete. Accuracy: 0.53 
  3.829526 seconds (7.66 M allocations: 1.578 GiB, 10.02% gc time)
===========================================
Testing stride = 80, dims = 4, k = 3
Classification complete. Accuracy: 0.64 
  3.874825 seconds (7.66 M allocations: 1.689 GiB, 10.47% gc time)
===========================================
Testing stride = 80, dims = 4, k = 7
Classification complete. Accuracy: 0.64 
  3.892234 seconds (7.66 M allocations: 1.689 GiB, 10.43% gc time)
===========================================
Testing stride = 80, dims = 4, k = 11
Classification complete. Accuracy: 0.65 
  3.889559 seconds (7.66 M allocations: 1.689 GiB, 10.41% gc time)
===========================================
Testing stride = 80, dims = 4, k = 15
Classification complete. Accuracy: 0.64 
  3.890108 seconds (7.66 M allocations: 1.689 GiB, 10.42% gc time)
===========================================
Testing stride = 80, dims = 4, k = 19
Classification complete. Accuracy: 0.64 
  3.888167 seconds (7.66 M allocations: 1.690 GiB, 10.44% gc time)
===========================================
Testing stride = 80, dims = 6, k = 3
Classification complete. Accuracy: 0.69 
  3.884414 seconds (7.66 M allocations: 1.801 GiB, 9.61% gc time)
===========================================
Testing stride = 80, dims = 6, k = 7
Classification complete. Accuracy: 0.69 
  3.856589 seconds (7.66 M allocations: 1.801 GiB, 9.61% gc time)
===========================================
Testing stride = 80, dims = 6, k = 11
Classification complete. Accuracy: 0.68 
  3.870827 seconds (7.66 M allocations: 1.801 GiB, 9.59% gc time)
===========================================
Testing stride = 80, dims = 6, k = 15
Classification complete. Accuracy: 0.68 
  3.870750 seconds (7.66 M allocations: 1.802 GiB, 9.59% gc time)
===========================================
Testing stride = 80, dims = 6, k = 19
Classification complete. Accuracy: 0.68 
  3.867154 seconds (7.66 M allocations: 1.802 GiB, 9.61% gc time)
===========================================
Testing stride = 80, dims = 8, k = 3
Classification complete. Accuracy: 0.70 
  3.879511 seconds (7.66 M allocations: 1.913 GiB, 9.49% gc time)
===========================================
Testing stride = 80, dims = 8, k = 7
Classification complete. Accuracy: 0.70 
  3.882783 seconds (7.66 M allocations: 1.913 GiB, 9.48% gc time)
===========================================
Testing stride = 80, dims = 8, k = 11
Classification complete. Accuracy: 0.69 
  3.883075 seconds (7.66 M allocations: 1.913 GiB, 9.45% gc time)
===========================================
Testing stride = 80, dims = 8, k = 15
Classification complete. Accuracy: 0.69 
  3.880754 seconds (7.66 M allocations: 1.913 GiB, 9.47% gc time)
===========================================
Testing stride = 80, dims = 8, k = 19
Classification complete. Accuracy: 0.69 
  3.879753 seconds (7.66 M allocations: 1.914 GiB, 9.45% gc time)
===========================================
Testing stride = 80, dims = 10, k = 3
Classification complete. Accuracy: 0.72 
  3.903261 seconds (7.66 M allocations: 2.024 GiB, 9.54% gc time)
===========================================
Testing stride = 80, dims = 10, k = 7
Classification complete. Accuracy: 0.71 
  3.903004 seconds (7.66 M allocations: 2.025 GiB, 9.54% gc time)
===========================================
Testing stride = 80, dims = 10, k = 11
Classification complete. Accuracy: 0.71 
  3.910092 seconds (7.66 M allocations: 2.025 GiB, 9.52% gc time)
===========================================
Testing stride = 80, dims = 10, k = 15
Classification complete. Accuracy: 0.71 
  3.905036 seconds (7.66 M allocations: 2.025 GiB, 9.54% gc time)
===========================================
Testing stride = 80, dims = 10, k = 19
Classification complete. Accuracy: 0.71 
  3.914641 seconds (7.66 M allocations: 2.026 GiB, 9.51% gc time)
===========================================
Testing stride = 100, dims = 2, k = 3
Classification complete. Accuracy: 0.49 
  3.668668 seconds (6.16 M allocations: 1.409 GiB, 10.04% gc time)
===========================================
Testing stride = 100, dims = 2, k = 7
Classification complete. Accuracy: 0.51 
  3.671639 seconds (6.16 M allocations: 1.410 GiB, 10.01% gc time)
===========================================
Testing stride = 100, dims = 2, k = 11
Classification complete. Accuracy: 0.52 
  3.671986 seconds (6.16 M allocations: 1.410 GiB, 10.02% gc time)
===========================================
Testing stride = 100, dims = 2, k = 15
Classification complete. Accuracy: 0.53 
  3.678348 seconds (6.16 M allocations: 1.410 GiB, 10.01% gc time)
===========================================
Testing stride = 100, dims = 2, k = 19
Classification complete. Accuracy: 0.53 
  3.678215 seconds (6.16 M allocations: 1.411 GiB, 9.99% gc time)
===========================================
Testing stride = 100, dims = 4, k = 3
Classification complete. Accuracy: 0.64 
  3.708434 seconds (6.16 M allocations: 1.499 GiB, 10.37% gc time)
===========================================
Testing stride = 100, dims = 4, k = 7
Classification complete. Accuracy: 0.66 
  3.747736 seconds (6.16 M allocations: 1.499 GiB, 10.42% gc time)
===========================================
Testing stride = 100, dims = 4, k = 11
Classification complete. Accuracy: 0.66 
  3.716429 seconds (6.16 M allocations: 1.500 GiB, 10.42% gc time)
===========================================
Testing stride = 100, dims = 4, k = 15
Classification complete. Accuracy: 0.66 
  3.718346 seconds (6.16 M allocations: 1.500 GiB, 10.47% gc time)
===========================================
Testing stride = 100, dims = 4, k = 19
Classification complete. Accuracy: 0.65 
  3.718221 seconds (6.16 M allocations: 1.500 GiB, 10.44% gc time)
===========================================
Testing stride = 100, dims = 6, k = 3
Classification complete. Accuracy: 0.69 
  3.699057 seconds (6.16 M allocations: 1.589 GiB, 9.70% gc time)
===========================================
Testing stride = 100, dims = 6, k = 7
Classification complete. Accuracy: 0.69 
  3.698896 seconds (6.16 M allocations: 1.589 GiB, 9.71% gc time)
===========================================
Testing stride = 100, dims = 6, k = 11
Classification complete. Accuracy: 0.69 
  3.701231 seconds (6.16 M allocations: 1.589 GiB, 9.68% gc time)
===========================================
Testing stride = 100, dims = 6, k = 15
Classification complete. Accuracy: 0.69 
  3.702212 seconds (6.16 M allocations: 1.589 GiB, 9.70% gc time)
===========================================
Testing stride = 100, dims = 6, k = 19
Classification complete. Accuracy: 0.68 
  3.700397 seconds (6.16 M allocations: 1.590 GiB, 9.69% gc time)
===========================================
Testing stride = 100, dims = 8, k = 3
Classification complete. Accuracy: 0.70 
  3.719299 seconds (6.16 M allocations: 1.678 GiB, 9.58% gc time)
===========================================
Testing stride = 100, dims = 8, k = 7
Classification complete. Accuracy: 0.71 
  3.713555 seconds (6.16 M allocations: 1.678 GiB, 9.57% gc time)
===========================================
Testing stride = 100, dims = 8, k = 11
Classification complete. Accuracy: 0.70 
  3.713487 seconds (6.16 M allocations: 1.679 GiB, 9.57% gc time)
===========================================
Testing stride = 100, dims = 8, k = 15
Classification complete. Accuracy: 0.70 
  3.720550 seconds (6.16 M allocations: 1.679 GiB, 9.57% gc time)
===========================================
Testing stride = 100, dims = 8, k = 19
Classification complete. Accuracy: 0.69 
  3.715275 seconds (6.16 M allocations: 1.679 GiB, 9.58% gc time)
===========================================
Testing stride = 100, dims = 10, k = 3
Classification complete. Accuracy: 0.72 
  3.735595 seconds (6.16 M allocations: 1.768 GiB, 9.65% gc time)
===========================================
Testing stride = 100, dims = 10, k = 7
Classification complete. Accuracy: 0.73 
  3.733900 seconds (6.16 M allocations: 1.768 GiB, 9.63% gc time)
===========================================
Testing stride = 100, dims = 10, k = 11
Classification complete. Accuracy: 0.72 
  3.735935 seconds (6.16 M allocations: 1.768 GiB, 9.65% gc time)
===========================================
Testing stride = 100, dims = 10, k = 15
Classification complete. Accuracy: 0.72 
  3.736136 seconds (6.16 M allocations: 1.769 GiB, 9.63% gc time)
===========================================
Testing stride = 100, dims = 10, k = 19
Classification complete. Accuracy: 0.71 
  3.741215 seconds (6.16 M allocations: 1.769 GiB, 9.62% gc time)
===========================================
Testing stride = 100, dims = 100, k = 3
Classification complete. Accuracy: 0.75 
 11.753787 seconds (29.38 M allocations: 6.797 GiB, 8.89% gc time)
===========================================
Testing stride = 100, dims = 100, k = 7
Classification complete. Accuracy: 0.74 
  4.989230 seconds (6.16 M allocations: 5.888 GiB, 10.59% gc time)
===========================================
Testing stride = 100, dims = 100, k = 11
Classification complete. Accuracy: 0.73 
  5.083156 seconds (6.16 M allocations: 5.889 GiB, 10.36% gc time)
===========================================
Testing stride = 100, dims = 100, k = 15
Classification complete. Accuracy: 0.73 
  5.097978 seconds (6.16 M allocations: 5.889 GiB, 10.24% gc time)
===========================================
Testing stride = 100, dims = 100, k = 19
Classification complete. Accuracy: 0.72 
  5.100995 seconds (6.16 M allocations: 5.889 GiB, 10.21% gc time)
===========================================
Testing stride = 100, dims = 80, k = 3
Classification complete. Accuracy: 0.75 
  4.819206 seconds (6.16 M allocations: 4.992 GiB, 10.08% gc time)
===========================================
Testing stride = 100, dims = 80, k = 7
Classification complete. Accuracy: 0.74 
  4.853837 seconds (6.16 M allocations: 4.993 GiB, 10.01% gc time)
===========================================
Testing stride = 100, dims = 80, k = 11
Classification complete. Accuracy: 0.73 
  4.840248 seconds (6.16 M allocations: 4.993 GiB, 10.08% gc time)
===========================================
Testing stride = 100, dims = 80, k = 15
Classification complete. Accuracy: 0.73 
  4.732789 seconds (6.16 M allocations: 4.993 GiB, 10.27% gc time)
===========================================
Testing stride = 100, dims = 80, k = 19
Classification complete. Accuracy: 0.72 
  4.747581 seconds (6.16 M allocations: 4.994 GiB, 10.20% gc time)
===========================================
Testing stride = 100, dims = 60, k = 3
Classification complete. Accuracy: 0.75 
  4.462542 seconds (6.16 M allocations: 4.097 GiB, 9.96% gc time)
===========================================
Testing stride = 100, dims = 60, k = 7
Classification complete. Accuracy: 0.74 
  4.505189 seconds (6.16 M allocations: 4.097 GiB, 9.96% gc time)
===========================================
Testing stride = 100, dims = 60, k = 11
Classification complete. Accuracy: 0.73 
  4.544805 seconds (6.16 M allocations: 4.097 GiB, 10.00% gc time)
===========================================
Testing stride = 100, dims = 60, k = 15
Classification complete. Accuracy: 0.73 
  4.573213 seconds (6.16 M allocations: 4.098 GiB, 9.92% gc time)
===========================================
Testing stride = 100, dims = 60, k = 19
Classification complete. Accuracy: 0.73 
  4.443205 seconds (6.16 M allocations: 4.098 GiB, 9.92% gc time)
===========================================
Testing stride = 100, dims = 40, k = 3
Classification complete. Accuracy: 0.75 
  4.225808 seconds (6.16 M allocations: 3.380 GiB, 9.81% gc time)
===========================================
Testing stride = 100, dims = 40, k = 7
Classification complete. Accuracy: 0.74 
  4.221477 seconds (6.16 M allocations: 3.380 GiB, 9.81% gc time)
===========================================
Testing stride = 100, dims = 40, k = 11
Classification complete. Accuracy: 0.74 
  4.264200 seconds (6.16 M allocations: 3.381 GiB, 10.23% gc time)
===========================================
Testing stride = 100, dims = 40, k = 15
Classification complete. Accuracy: 0.73 
  4.222549 seconds (6.16 M allocations: 3.381 GiB, 9.80% gc time)
===========================================
Testing stride = 100, dims = 40, k = 19
Classification complete. Accuracy: 0.73 
  4.228083 seconds (6.16 M allocations: 3.381 GiB, 9.81% gc time)
===========================================
Testing stride = 100, dims = 20, k = 3
Classification complete. Accuracy: 0.75 
  3.911214 seconds (6.16 M allocations: 2.216 GiB, 9.34% gc time)
===========================================
Testing stride = 100, dims = 20, k = 7
Classification complete. Accuracy: 0.74 
  3.885780 seconds (6.16 M allocations: 2.216 GiB, 9.42% gc time)
===========================================
Testing stride = 100, dims = 20, k = 11
Classification complete. Accuracy: 0.74 
  3.917441 seconds (6.16 M allocations: 2.216 GiB, 9.36% gc time)
===========================================
Testing stride = 100, dims = 20, k = 15
Classification complete. Accuracy: 0.73 
  3.908539 seconds (6.16 M allocations: 2.216 GiB, 9.36% gc time)
===========================================
Testing stride = 100, dims = 20, k = 19
Classification complete. Accuracy: 0.72 
  3.901507 seconds (6.16 M allocations: 2.217 GiB, 9.34% gc time)
===========================================
Testing stride = 80, dims = 100, k = 3
Classification complete. Accuracy: 0.74 
  5.378570 seconds (7.66 M allocations: 7.173 GiB, 10.59% gc time)
===========================================
Testing stride = 80, dims = 100, k = 7
Classification complete. Accuracy: 0.75 
  5.386614 seconds (7.66 M allocations: 7.174 GiB, 10.55% gc time)
===========================================
Testing stride = 80, dims = 100, k = 11
Classification complete. Accuracy: 0.74 
  5.380339 seconds (7.66 M allocations: 7.174 GiB, 10.59% gc time)
===========================================
Testing stride = 80, dims = 100, k = 15
Classification complete. Accuracy: 0.73 
  5.382362 seconds (7.66 M allocations: 7.174 GiB, 10.58% gc time)
===========================================
Testing stride = 80, dims = 100, k = 19
Classification complete. Accuracy: 0.73 
  5.381301 seconds (7.66 M allocations: 7.174 GiB, 10.57% gc time)
===========================================
Testing stride = 80, dims = 80, k = 3
Classification complete. Accuracy: 0.74 
  5.097948 seconds (7.66 M allocations: 6.054 GiB, 10.25% gc time)
===========================================
Testing stride = 80, dims = 80, k = 7
Classification complete. Accuracy: 0.75 
  5.099518 seconds (7.66 M allocations: 6.054 GiB, 10.24% gc time)
===========================================
Testing stride = 80, dims = 80, k = 11
Classification complete. Accuracy: 0.74 
  5.087211 seconds (7.66 M allocations: 6.055 GiB, 10.27% gc time)
===========================================
Testing stride = 80, dims = 80, k = 15
Classification complete. Accuracy: 0.73 
  5.092469 seconds (7.66 M allocations: 6.055 GiB, 10.26% gc time)
===========================================
Testing stride = 80, dims = 80, k = 19
Classification complete. Accuracy: 0.73 
  5.101588 seconds (7.66 M allocations: 6.055 GiB, 10.24% gc time)
===========================================
Testing stride = 80, dims = 60, k = 3
Classification complete. Accuracy: 0.74 
  4.788218 seconds (7.66 M allocations: 4.935 GiB, 9.95% gc time)
===========================================
Testing stride = 80, dims = 60, k = 7
Classification complete. Accuracy: 0.75 
  4.790624 seconds (7.66 M allocations: 4.935 GiB, 9.96% gc time)
===========================================
Testing stride = 80, dims = 60, k = 11
Classification complete. Accuracy: 0.74 
  4.789653 seconds (7.66 M allocations: 4.935 GiB, 9.93% gc time)
===========================================
Testing stride = 80, dims = 60, k = 15
Classification complete. Accuracy: 0.74 
  4.797690 seconds (7.66 M allocations: 4.936 GiB, 9.98% gc time)
===========================================
Testing stride = 80, dims = 60, k = 19
Classification complete. Accuracy: 0.73 
  4.779177 seconds (7.66 M allocations: 4.936 GiB, 9.96% gc time)
===========================================
Testing stride = 80, dims = 40, k = 3
Classification complete. Accuracy: 0.75 
  4.512777 seconds (7.66 M allocations: 4.039 GiB, 9.82% gc time)
===========================================
Testing stride = 80, dims = 40, k = 7
Classification complete. Accuracy: 0.75 
  4.519067 seconds (7.66 M allocations: 4.039 GiB, 9.82% gc time)
===========================================
Testing stride = 80, dims = 40, k = 11
Classification complete. Accuracy: 0.75 
  4.538502 seconds (7.66 M allocations: 4.040 GiB, 9.77% gc time)
===========================================
Testing stride = 80, dims = 40, k = 15
Classification complete. Accuracy: 0.74 
  4.527718 seconds (7.66 M allocations: 4.040 GiB, 9.78% gc time)
===========================================
Testing stride = 80, dims = 40, k = 19
Classification complete. Accuracy: 0.73 
  4.508961 seconds (7.66 M allocations: 4.040 GiB, 9.81% gc time)
===========================================
Testing stride = 80, dims = 20, k = 3
Classification complete. Accuracy: 0.74 
  4.090595 seconds (7.66 M allocations: 2.584 GiB, 9.31% gc time)
===========================================
Testing stride = 80, dims = 20, k = 7
Classification complete. Accuracy: 0.75 
  4.124048 seconds (7.66 M allocations: 2.584 GiB, 9.26% gc time)
===========================================
Testing stride = 80, dims = 20, k = 11
Classification complete. Accuracy: 0.75 
  4.130235 seconds (7.66 M allocations: 2.585 GiB, 9.34% gc time)
===========================================
Testing stride = 80, dims = 20, k = 15
Classification complete. Accuracy: 0.74 
  4.100503 seconds (7.66 M allocations: 2.585 GiB, 9.28% gc time)
===========================================
Testing stride = 80, dims = 20, k = 19
Classification complete. Accuracy: 0.73 
  4.112116 seconds (7.66 M allocations: 2.585 GiB, 9.25% gc time)
===========================================
Testing stride = 60, dims = 100, k = 3
Classification complete. Accuracy: 0.77 
  6.440135 seconds (10.31 M allocations: 9.300 GiB, 10.35% gc time)
===========================================
Testing stride = 60, dims = 100, k = 7
Classification complete. Accuracy: 0.78 
  6.227417 seconds (10.16 M allocations: 9.294 GiB, 10.66% gc time)
===========================================
Testing stride = 60, dims = 100, k = 11
Classification complete. Accuracy: 0.77 
  6.215532 seconds (10.16 M allocations: 9.295 GiB, 10.68% gc time)
===========================================
Testing stride = 60, dims = 100, k = 15
Classification complete. Accuracy: 0.76 
  6.200706 seconds (10.16 M allocations: 9.295 GiB, 10.69% gc time)
===========================================
Testing stride = 60, dims = 100, k = 19
Classification complete. Accuracy: 0.76 
  6.107444 seconds (10.16 M allocations: 9.295 GiB, 10.80% gc time)
===========================================
Testing stride = 60, dims = 80, k = 3
Classification complete. Accuracy: 0.77 
  5.651558 seconds (10.16 M allocations: 7.802 GiB, 10.53% gc time)
===========================================
Testing stride = 60, dims = 80, k = 7
Classification complete. Accuracy: 0.77 
  5.659700 seconds (10.16 M allocations: 7.803 GiB, 10.50% gc time)
===========================================
Testing stride = 60, dims = 80, k = 11
Classification complete. Accuracy: 0.77 
  5.671338 seconds (10.16 M allocations: 7.803 GiB, 10.50% gc time)
===========================================
Testing stride = 60, dims = 80, k = 15
Classification complete. Accuracy: 0.77 
  5.676782 seconds (10.16 M allocations: 7.803 GiB, 10.49% gc time)
===========================================
Testing stride = 60, dims = 80, k = 19
Classification complete. Accuracy: 0.76 
  5.675624 seconds (10.16 M allocations: 7.803 GiB, 10.49% gc time)
===========================================
Testing stride = 60, dims = 60, k = 3
Classification complete. Accuracy: 0.77 
  5.257971 seconds (10.16 M allocations: 6.310 GiB, 10.15% gc time)
===========================================
Testing stride = 60, dims = 60, k = 7
Classification complete. Accuracy: 0.78 
  5.262438 seconds (10.16 M allocations: 6.311 GiB, 10.15% gc time)
===========================================
Testing stride = 60, dims = 60, k = 11
Classification complete. Accuracy: 0.77 
  5.257199 seconds (10.16 M allocations: 6.311 GiB, 10.14% gc time)
===========================================
Testing stride = 60, dims = 60, k = 15
Classification complete. Accuracy: 0.77 
  5.248900 seconds (10.16 M allocations: 6.311 GiB, 10.13% gc time)
===========================================
Testing stride = 60, dims = 60, k = 19
Classification complete. Accuracy: 0.76 
  5.268479 seconds (10.16 M allocations: 6.312 GiB, 10.13% gc time)
===========================================
Testing stride = 60, dims = 40, k = 3
Classification complete. Accuracy: 0.76 
  4.889520 seconds (10.16 M allocations: 5.117 GiB, 9.96% gc time)
===========================================
Testing stride = 60, dims = 40, k = 7
Classification complete. Accuracy: 0.78 
  4.891412 seconds (10.16 M allocations: 5.117 GiB, 9.97% gc time)
===========================================
Testing stride = 60, dims = 40, k = 11
Classification complete. Accuracy: 0.77 
  4.890933 seconds (10.16 M allocations: 5.117 GiB, 9.94% gc time)
===========================================
Testing stride = 60, dims = 40, k = 15
Classification complete. Accuracy: 0.76 
  4.896282 seconds (10.16 M allocations: 5.118 GiB, 9.95% gc time)
===========================================
Testing stride = 60, dims = 40, k = 19
Classification complete. Accuracy: 0.76 
  4.896411 seconds (10.16 M allocations: 5.118 GiB, 9.96% gc time)
===========================================
Testing stride = 60, dims = 20, k = 3
Classification complete. Accuracy: 0.76 
  4.352848 seconds (10.16 M allocations: 3.177 GiB, 9.32% gc time)
===========================================
Testing stride = 60, dims = 20, k = 7
Classification complete. Accuracy: 0.76 
  4.343081 seconds (10.16 M allocations: 3.178 GiB, 9.36% gc time)
===========================================
Testing stride = 60, dims = 20, k = 11
Classification complete. Accuracy: 0.76 
  4.347163 seconds (10.16 M allocations: 3.178 GiB, 9.36% gc time)
===========================================
Testing stride = 60, dims = 20, k = 15
Classification complete. Accuracy: 0.76 
  4.345180 seconds (10.16 M allocations: 3.178 GiB, 9.37% gc time)
===========================================
Testing stride = 60, dims = 20, k = 19
Classification complete. Accuracy: 0.75 
  4.345526 seconds (10.16 M allocations: 3.179 GiB, 9.36% gc time)
===========================================
Testing stride = 40, dims = 100, k = 3
Classification complete. Accuracy: 0.78 
  7.560744 seconds (15.16 M allocations: 13.551 GiB, 11.07% gc time)
===========================================
Testing stride = 40, dims = 100, k = 7
Classification complete. Accuracy: 0.78 
  7.639239 seconds (15.16 M allocations: 13.551 GiB, 10.94% gc time)
===========================================
Testing stride = 40, dims = 100, k = 11
Classification complete. Accuracy: 0.78 
  7.658762 seconds (15.16 M allocations: 13.552 GiB, 10.93% gc time)
===========================================
Testing stride = 40, dims = 100, k = 15
Classification complete. Accuracy: 0.77 
  7.648235 seconds (15.16 M allocations: 13.552 GiB, 10.92% gc time)
===========================================
Testing stride = 40, dims = 100, k = 19
Classification complete. Accuracy: 0.76 
  7.659505 seconds (15.16 M allocations: 13.552 GiB, 10.91% gc time)
===========================================
Testing stride = 40, dims = 80, k = 3
Classification complete. Accuracy: 0.78 
  7.064353 seconds (15.16 M allocations: 11.314 GiB, 10.51% gc time)
===========================================
Testing stride = 40, dims = 80, k = 7
Classification complete. Accuracy: 0.78 
  7.095804 seconds (15.16 M allocations: 11.314 GiB, 10.47% gc time)
===========================================
Testing stride = 40, dims = 80, k = 11
Classification complete. Accuracy: 0.78 
  7.072274 seconds (15.16 M allocations: 11.315 GiB, 10.48% gc time)
===========================================
Testing stride = 40, dims = 80, k = 15
Classification complete. Accuracy: 0.77 
  7.072572 seconds (15.16 M allocations: 11.315 GiB, 10.49% gc time)
===========================================
Testing stride = 40, dims = 80, k = 19
Classification complete. Accuracy: 0.76 
  7.067499 seconds (15.16 M allocations: 11.315 GiB, 10.52% gc time)
===========================================
Testing stride = 40, dims = 60, k = 3
Classification complete. Accuracy: 0.78 
  6.402845 seconds (15.16 M allocations: 9.077 GiB, 10.14% gc time)
===========================================
Testing stride = 40, dims = 60, k = 7
Classification complete. Accuracy: 0.78 
  6.402131 seconds (15.16 M allocations: 9.077 GiB, 10.11% gc time)
===========================================
Testing stride = 40, dims = 60, k = 11
Classification complete. Accuracy: 0.78 
  6.396672 seconds (15.16 M allocations: 9.078 GiB, 10.13% gc time)
===========================================
Testing stride = 40, dims = 60, k = 15
Classification complete. Accuracy: 0.77 
  6.509877 seconds (15.16 M allocations: 9.078 GiB, 9.96% gc time)
===========================================
Testing stride = 40, dims = 60, k = 19
Classification complete. Accuracy: 0.77 
  6.398489 seconds (15.16 M allocations: 9.078 GiB, 10.12% gc time)
===========================================
Testing stride = 40, dims = 40, k = 3
Classification complete. Accuracy: 0.77 
  5.814853 seconds (15.16 M allocations: 7.287 GiB, 9.93% gc time)
===========================================
Testing stride = 40, dims = 40, k = 7
Classification complete. Accuracy: 0.78 
  5.810228 seconds (15.16 M allocations: 7.288 GiB, 9.95% gc time)
===========================================
Testing stride = 40, dims = 40, k = 11
Classification complete. Accuracy: 0.78 
  5.813301 seconds (15.16 M allocations: 7.288 GiB, 9.97% gc time)
===========================================
Testing stride = 40, dims = 40, k = 15
Classification complete. Accuracy: 0.77 
  5.755117 seconds (15.16 M allocations: 7.288 GiB, 10.00% gc time)
===========================================
Testing stride = 40, dims = 40, k = 19
Classification complete. Accuracy: 0.77 
  5.760975 seconds (15.16 M allocations: 7.289 GiB, 10.03% gc time)
===========================================
Testing stride = 40, dims = 20, k = 3
Classification complete. Accuracy: 0.77 
  4.920820 seconds (15.16 M allocations: 4.379 GiB, 9.24% gc time)
===========================================
Testing stride = 40, dims = 20, k = 7
Classification complete. Accuracy: 0.77 
  4.940657 seconds (15.16 M allocations: 4.380 GiB, 9.19% gc time)
===========================================
Testing stride = 40, dims = 20, k = 11
Classification complete. Accuracy: 0.77 
  4.939743 seconds (15.16 M allocations: 4.380 GiB, 9.19% gc time)
===========================================
Testing stride = 40, dims = 20, k = 15
Classification complete. Accuracy: 0.77 
  4.972224 seconds (15.16 M allocations: 4.380 GiB, 9.20% gc time)
===========================================
Testing stride = 40, dims = 20, k = 19
Classification complete. Accuracy: 0.77 
  4.960698 seconds (15.16 M allocations: 4.380 GiB, 9.18% gc time)
===========================================
Testing stride = 20, dims = 100, k = 3
Classification complete. Accuracy: 0.80 
 11.925129 seconds (30.18 M allocations: 26.319 GiB, 11.33% gc time)
===========================================
Testing stride = 20, dims = 100, k = 7
Classification complete. Accuracy: 0.80 
 12.059345 seconds (30.18 M allocations: 26.319 GiB, 11.28% gc time)
===========================================
Testing stride = 20, dims = 100, k = 11
Classification complete. Accuracy: 0.81 
 12.067702 seconds (30.18 M allocations: 26.319 GiB, 11.29% gc time)
===========================================
Testing stride = 20, dims = 100, k = 15
Classification complete. Accuracy: 0.80 
 12.066716 seconds (30.18 M allocations: 26.319 GiB, 11.26% gc time)
===========================================
Testing stride = 20, dims = 100, k = 19
Classification complete. Accuracy: 0.80 
 12.104226 seconds (30.18 M allocations: 26.320 GiB, 11.25% gc time)
===========================================
Testing stride = 20, dims = 80, k = 3
Classification complete. Accuracy: 0.80 
 10.863919 seconds (30.18 M allocations: 21.846 GiB, 10.86% gc time)
===========================================
Testing stride = 20, dims = 80, k = 7
Classification complete. Accuracy: 0.80 
 10.875866 seconds (30.18 M allocations: 21.846 GiB, 10.82% gc time)
===========================================
Testing stride = 20, dims = 80, k = 11
Classification complete. Accuracy: 0.81 
 10.884977 seconds (30.18 M allocations: 21.847 GiB, 10.84% gc time)
===========================================
Testing stride = 20, dims = 80, k = 15
Classification complete. Accuracy: 0.80 
 10.876068 seconds (30.18 M allocations: 21.847 GiB, 10.83% gc time)
===========================================
Testing stride = 20, dims = 80, k = 19
Classification complete. Accuracy: 0.80 
 10.881319 seconds (30.18 M allocations: 21.847 GiB, 10.84% gc time)
===========================================
Testing stride = 20, dims = 60, k = 3
Classification complete. Accuracy: 0.80 
  9.606797 seconds (30.18 M allocations: 17.374 GiB, 10.33% gc time)
===========================================
Testing stride = 20, dims = 60, k = 7
Classification complete. Accuracy: 0.80 
  9.611798 seconds (30.18 M allocations: 17.374 GiB, 10.33% gc time)
===========================================
Testing stride = 20, dims = 60, k = 11
Classification complete. Accuracy: 0.80 
  9.639994 seconds (30.18 M allocations: 17.374 GiB, 10.33% gc time)
===========================================
Testing stride = 20, dims = 60, k = 15
Classification complete. Accuracy: 0.80 
  9.723249 seconds (30.18 M allocations: 17.375 GiB, 10.26% gc time)
===========================================
Testing stride = 20, dims = 60, k = 19
Classification complete. Accuracy: 0.80 
  9.521776 seconds (30.18 M allocations: 17.375 GiB, 10.34% gc time)
===========================================
Testing stride = 20, dims = 40, k = 3
Classification complete. Accuracy: 0.80 
  8.417349 seconds (30.18 M allocations: 13.796 GiB, 10.15% gc time)
===========================================
Testing stride = 20, dims = 40, k = 7
Classification complete. Accuracy: 0.80 
  8.427870 seconds (30.18 M allocations: 13.796 GiB, 10.12% gc time)
===========================================
Testing stride = 20, dims = 40, k = 11
Classification complete. Accuracy: 0.80 
  8.411058 seconds (30.18 M allocations: 13.796 GiB, 10.14% gc time)
===========================================
Testing stride = 20, dims = 40, k = 15
Classification complete. Accuracy: 0.80 
  8.411438 seconds (30.18 M allocations: 13.797 GiB, 10.08% gc time)
===========================================
Testing stride = 20, dims = 40, k = 19
Classification complete. Accuracy: 0.80 
  8.418818 seconds (30.18 M allocations: 13.797 GiB, 10.08% gc time)
===========================================
Testing stride = 20, dims = 20, k = 3
Classification complete. Accuracy: 0.79 
  6.764375 seconds (30.18 M allocations: 7.982 GiB, 9.05% gc time)
===========================================
Testing stride = 20, dims = 20, k = 7
Classification complete. Accuracy: 0.80 
  6.787399 seconds (30.18 M allocations: 7.982 GiB, 9.07% gc time)
===========================================
Testing stride = 20, dims = 20, k = 11
Classification complete. Accuracy: 0.80 
  6.785361 seconds (30.18 M allocations: 7.982 GiB, 9.05% gc time)
===========================================
Testing stride = 20, dims = 20, k = 15
Classification complete. Accuracy: 0.80 
  6.759890 seconds (30.18 M allocations: 7.983 GiB, 9.08% gc time)
===========================================
Testing stride = 20, dims = 20, k = 19
Classification complete. Accuracy: 0.79 
  6.777537 seconds (30.18 M allocations: 7.983 GiB, 8.96% gc time)
===========================================
Testing stride = 1, dims = 100, k = 3
Classification complete. Accuracy: 0.86 
205.635449 seconds (600.18 M allocations: 511.540 GiB, 10.86% gc time)
===========================================
Testing stride = 1, dims = 100, k = 7
Classification complete. Accuracy: 0.87 
206.327345 seconds (600.18 M allocations: 511.541 GiB, 10.88% gc time)
===========================================
Testing stride = 1, dims = 100, k = 11
Classification complete. Accuracy: 0.86 
205.547680 seconds (600.18 M allocations: 511.541 GiB, 10.90% gc time)
===========================================
Testing stride = 1, dims = 100, k = 15
Classification complete. Accuracy: 0.86 
205.203832 seconds (600.18 M allocations: 511.541 GiB, 10.90% gc time)
===========================================
Testing stride = 1, dims = 100, k = 19
Classification complete. Accuracy: 0.86 
205.205998 seconds (600.18 M allocations: 511.541 GiB, 10.89% gc time)
===========================================
Testing stride = 1, dims = 80, k = 3
Classification complete. Accuracy: 0.86 
175.142458 seconds (600.18 M allocations: 422.123 GiB, 9.03% gc time)
===========================================
Testing stride = 1, dims = 80, k = 7
Classification complete. Accuracy: 0.87 
175.193820 seconds (600.18 M allocations: 422.123 GiB, 9.05% gc time)
===========================================
Testing stride = 1, dims = 80, k = 11
Classification complete. Accuracy: 0.86 
175.140759 seconds (600.18 M allocations: 422.123 GiB, 9.04% gc time)
===========================================
Testing stride = 1, dims = 80, k = 15
Classification complete. Accuracy: 0.86 
176.097559 seconds (600.18 M allocations: 422.124 GiB, 9.04% gc time)
===========================================
Testing stride = 1, dims = 80, k = 19
Classification complete. Accuracy: 0.86 
174.848997 seconds (600.18 M allocations: 422.124 GiB, 9.11% gc time)
===========================================
Testing stride = 1, dims = 60, k = 3
Classification complete. Accuracy: 0.86 
143.943741 seconds (600.18 M allocations: 332.705 GiB, 9.04% gc time)
===========================================
Testing stride = 1, dims = 60, k = 7
Classification complete. Accuracy: 0.86 
144.071960 seconds (600.18 M allocations: 332.706 GiB, 9.11% gc time)
===========================================
Testing stride = 1, dims = 60, k = 11
Classification complete. Accuracy: 0.86 
143.515395 seconds (600.18 M allocations: 332.706 GiB, 9.04% gc time)
===========================================
Testing stride = 1, dims = 60, k = 15
Classification complete. Accuracy: 0.86 
143.909592 seconds (600.18 M allocations: 332.706 GiB, 9.09% gc time)
===========================================
Testing stride = 1, dims = 60, k = 19
Classification complete. Accuracy: 0.86 
143.786524 seconds (600.18 M allocations: 332.706 GiB, 9.15% gc time)
===========================================
Testing stride = 1, dims = 40, k = 3
Classification complete. Accuracy: 0.85 
120.045606 seconds (600.18 M allocations: 261.169 GiB, 8.52% gc time)
===========================================
Testing stride = 1, dims = 40, k = 7
Classification complete. Accuracy: 0.86 
119.950460 seconds (600.18 M allocations: 261.170 GiB, 8.53% gc time)
===========================================
Testing stride = 1, dims = 40, k = 11
Classification complete. Accuracy: 0.86 
119.970244 seconds (600.18 M allocations: 261.170 GiB, 8.52% gc time)
===========================================
Testing stride = 1, dims = 40, k = 15
Classification complete. Accuracy: 0.86 
120.083076 seconds (600.18 M allocations: 261.170 GiB, 8.50% gc time)
===========================================
Testing stride = 1, dims = 40, k = 19
Classification complete. Accuracy: 0.85 
120.049919 seconds (600.18 M allocations: 261.171 GiB, 8.51% gc time)
===========================================
Testing stride = 1, dims = 20, k = 3
Classification complete. Accuracy: 0.84 
 87.715906 seconds (600.18 M allocations: 144.929 GiB, 7.31% gc time)
===========================================
Testing stride = 1, dims = 20, k = 7
Classification complete. Accuracy: 0.85 
 87.623193 seconds (600.18 M allocations: 144.930 GiB, 7.23% gc time)
===========================================
Testing stride = 1, dims = 20, k = 11
Classification complete. Accuracy: 0.85 
 87.653286 seconds (600.18 M allocations: 144.930 GiB, 7.25% gc time)
===========================================
Testing stride = 1, dims = 20, k = 15
Classification complete. Accuracy: 0.85 
 87.593995 seconds (600.18 M allocations: 144.930 GiB, 7.24% gc time)
===========================================
Testing stride = 1, dims = 20, k = 19
Classification complete. Accuracy: 0.84 
 87.718209 seconds (600.18 M allocations: 144.931 GiB, 7.24% gc time)
===========================================
